Лабораторна робота №5: Функціональне програмування та паралельні обчислення в R
…
high_value_transactions <- keep(successful_transactions, ~ .x$sale_sum[1] >= 1000)

cat(paste("number of transaction with sale_sum >= 1000:", length(high_value_transactions), "\n"))

number of transaction with sale_sum >= 1000: 5 

Code

# saving results
final_filtered_data <- bind_rows(high_value_transactions)

print(final_filtered_data)

# A tibble: 45 × 10
    ...1 product_id name        price date       manager  clients count sale_sum
   <dbl>      <dbl> <chr>       <dbl> <date>     <chr>    <chr>   <dbl>    <dbl>
 1     1          4 PC           1500 2025-10-15 Svetlana client…     1     1500
 2     2          6 TV            700 2025-10-15 Svetlana client…     2     1400
 3     3         10 Tablet        150 2025-10-15 Svetlana client…     3      450
 4     4          5 Playstation  1000 2025-10-15 Svetlana client…     2     2000
 5     5          2 Smarthphone   850 2025-10-15 Svetlana client…     3     2550
 6     6          7 XBox          870 2025-10-15 Svetlana client…     1      870
 7     7          3 Smart watch   380 2025-10-15 Svetlana client…     3     1140
 8     8          8 Wifi router    80 2025-10-15 Svetlana client…     2      160
 9     9          1 Notebook     1000 2025-10-15 Svetlana client…     2     2000
10     1          1 Notebook     1000 2025-10-17 Ivan     client…     3     3000
# ℹ 35 more rows
# ℹ 1 more variable: transaction_id <dbl>
…
cat("joined table\n")

joined table

Code

print(all_transactions_with_id)

# A tibble: 63 × 12
   file_id file_path  ...1 product_id name      price date       manager clients
   <chr>   <chr>     <dbl>      <dbl> <chr>     <dbl> <date>     <chr>   <chr>  
 1 1       1             1         10 Tablet      150 2025-10-09 Ivan    client…
 2 1       1             2          3 Smart wa…   380 2025-10-09 Ivan    client…
 3 1       1             3          6 TV          700 2025-10-09 Ivan    client…
 4 1       1             4          9 Air cond…   500 2025-10-09 Ivan    client…
 5 1       1             5          2 Smarthph…   850 2025-10-09 Ivan    client…
 6 1       1             6          1 Notebook   1000 2025-10-09 Ivan    client…
 7 1       1             7          7 XBox        870 2025-10-09 Ivan    client…
 8 1       1             8          5 Playstat…  1000 2025-10-09 Ivan    client…
 9 1       1             9          4 PC         1500 2025-10-09 Ivan    client…
10 2       2             1          4 PC         1500 2025-10-15 Svetla… client…
# ℹ 53 more rows
# ℹ 3 more variables: count <dbl>, sale_sum <dbl>, transaction_id <dbl>
Code

# filterring
cat("\nfiltered table (>= 1000) after joining\n")

filtered table (>= 1000) after joining

Code

final_high_value_table <- all_transactions_with_id %>% 
  filter(sale_sum >= 1000)

print(final_high_value_table)

# A tibble: 35 × 12
   file_id file_path  ...1 product_id name      price date       manager clients
   <chr>   <chr>     <dbl>      <dbl> <chr>     <dbl> <date>     <chr>   <chr>  
 1 1       1             3          6 TV          700 2025-10-09 Ivan    client…
 2 1       1             4          9 Air cond…   500 2025-10-09 Ivan    client…
 3 1       1             6          1 Notebook   1000 2025-10-09 Ivan    client…
 4 1       1             8          5 Playstat…  1000 2025-10-09 Ivan    client…
 5 1       1             9          4 PC         1500 2025-10-09 Ivan    client…
 6 2       2             1          4 PC         1500 2025-10-15 Svetla… client…
 7 2       2             2          6 TV          700 2025-10-15 Svetla… client…
 8 2       2             4          5 Playstat…  1000 2025-10-15 Svetla… client…
 9 2       2             5          2 Smarthph…   850 2025-10-15 Svetla… client…
10 2       2             7          3 Smart wa…   380 2025-10-15 Svetla… client…
# ℹ 25 more rows
# ℹ 3 more variables: count <dbl>, sale_sum <dbl>, transaction_id <dbl>
…
