Лабораторна робота №2: Інтеграція та об’єднання даних з різних джерел
…
Додайте до all_sales інформацію про товари (product_name, category) через left_join.

Додайте інформацію про клієнтів (region, customer_type) через left_join.

products_q1 <- read_excel("data/sales_q1.xlsx", sheet = "products")
all_sales_joined <- all_sales |>
  dplyr::left_join(products_q1, by = "product_id") |>
  dplyr::left_join(customers, by = "customer_id") |>
  dplyr::relocate(product_name, category, .after = product_id) |>
  dplyr::relocate(region, customer_type, .after = customer_id)

print(all_sales_joined)

# A tibble: 47 × 11
   month   order_id product_id product_name     category quantity price_per_unit
   <chr>   <chr>    <chr>      <chr>            <chr>       <dbl>          <dbl>
 1 2025-01 OJM1     P006       "Монітор 27 дюй… Електро…        1         12021.
 2 2025-01 OJM2     P001       "Ноутбук UltraB… Електро…        2         24763.
 3 2025-01 OJM3     P003       "Ергономічний с… Офіс           11          4478.
 4 2025-01 OJM4     P005       "Набір ручок Pa… Офіс            3           797.
 5 2025-01 OJM5     P001       "Ноутбук UltraB… Електро…        1         25049.
 6 2025-01 OJM6     P001       "Ноутбук UltraB… Електро…        2         25065.
 7 2025-01 OJM7     P006       "Монітор 27 дюй… Електро…        2         11923.
 8 2025-01 OJM8     P006       "Монітор 27 дюй… Електро…        1         12076.
 9 2025-01 OJM9     P004       "Кава \"Arabica… Продукти        6           453.
10 2025-01 OJM10    P002       "Бездротові нав… Електро…       12          1500.
# ℹ 37 more rows
# ℹ 4 more variables: customer_id <chr>, region <chr>, customer_type <chr>,
#   ...4 <lgl>
…
print(analysis_results)

# A tibble: 23 × 6
   month   region  total_total_revenue unique_customers total_orders
   <chr>   <chr>                 <dbl>            <int>        <int>
 1 2025-01 Житомир              67529.                2            2
 2 2025-01 Львів                85175.                1            3
 3 2025-01 Одеса                27439.                2            2
 4 2025-01 Харків               64867.                3            3
 5 2025-02 Житомир              51821.                2            3
 6 2025-02 Львів                 7484.                1            1
 7 2025-02 Одеса                24043.                1            1
 8 2025-02 Харків               53108.                1            2
 9 2025-03 Дніпро                6361.                1            1
10 2025-03 Житомир             123220.                2            3
# ℹ 13 more rows
# ℹ 1 more variable: avg_average_check <dbl>
…
